,information
name,Simulation NIR spectra Temperature and Season effects
description,"Calibration set: 600 samples, Test set: 200 samples, Temperature set: 250 samples, Season set: 300 samples"
source,https://doi.org/10.1016/j.chemolab.2020.103979
author,Valeria Fonseca Diaz
chemical properties,Y
data type,"['calibration', 'test', 'temperature', 'season']"
wavelenghts,0-1000
